{
    "_": "Config example for the cim_client command-line utility",
    "client": {
        "endpoints": {
            "url": "https://example.com",
            "upsert_persons_url": "upsert_persons_url",
            "delete_persons_url": "delete_persons_url",
            "import_organisations_url": "import_organisations_url"
        },
        "headers": {
            "header_key": "header_value"
        },
        "return_objects": true,
        "use_sessions": true,
        "auth": [
            "auth_username",
            "auth_password"
        ]
    },
    "logging": {
        "version": 1,
        "replace_existing_loggers": false,
        "root": {
            "level": "INFO"
        },
        "loggers": {
            "__main__": {
                "level": "INFO"
            },
            "cim_client": {
                "level": "WARNING"
            },
            "urllib3": {
                "level": "DEBUG"
            }
        }
    }
}
