{
  "lastname": "Lure",
  "firstname": "Fai",
  "job_mobile": "+4722334455",
  "job_phone": "+4799001122",
  "email": "Fai.Lure@company.no",
  "email_secondary": "Fai.Lure@gmail.com",
  "org_import_id": "ORG-2",
  "location_import_id": "Oslo 123",
  "timezone": "Europe/Oslo",
  "employee_id": "A000011",
  "person_type": "contact",
  "dist_list": "External contacts",
  "description": "Fai has no username or user_import_id"
}
