{
  "lastname": "Doe",
  "firstname": "John",
  "username": "johndoe",
  "job_mobile": "+4712345678",
  "job_phone": "+4787654321",
  "email": "johndoe@company.no",
  "email_secondary": "john.doe@gmail.com",
  "org_import_id": "ORG-1",
  "job_title": "CTO",
  "roles": "Admin,Test role",
  "next_of_kin": [
    {
      "firstname": "Nils",
      "lastname": "Holgersson",
      "id": "import_id3"
    },
    {
      "firstname": "Tobias",
      "lastname": "Itaarnet",
      "phone": "00000000",
      "email": "",
      "relation": "child",
      "date_of_birth": "10.11.1978",
      "address": "Taarnet til Tobias",
      "state": "Vest-Agder",
      "postal_code": "4609",
      "town": " Kardemomme by",
      "country_code": "NO",
      "id": "import_id4"
    }
  ]
}